@startuml
skinparam defaultTextAlignment center

rectangle "MODEL\nDESCRIPTION\n(swagger / wsdl)" as MD
rectangle "PARSER" as PARSER
rectangle "MODEL\n(METAMODEL)" as MODEL
rectangle "MODULE\nBUILDER" as MODULE_BUILDER
rectangle "MODULE\nBUILDER\nCONFIGURATOR" as MODULE_BUILDER_CONFIGURATOR
rectangle "MODULE\nBUILDER\nCONFIGURATION" as MODULE_BUILDER_CFG
rectangle "CLASS\nBUILDER" as CLASS_BUILDER
rectangle "CLASS\nBUILDER\nCONFIGURATION" as CLASS_BUILDER_CFG
rectangle "CLASS\nBUILD\nSTRATEGY" as CLASS_BUILDER_STRATEGY
() "CLASS\nBUILDER\nHELPER" as CLASS_BUILDER_HELPER
rectangle "CLASS INDEX\n(MAPPER INDEX)" as CLASS_INDEX
rectangle "CODE\nGENERATION\nTASK" as GENERATION_TASK
rectangle "CLASS MODEL" as CLASS_MODEL

rectangle "GENERATOR\nCONFIGURATOR" as GENERATOR_CONFIGURATOR
rectangle "GENERATOR\nCONFIGURATION" as GENERATOR_CFG
rectangle "GENERATOR" as GENERATOR
rectangle "FILE INDEX" as FILE_INDEX

MD <- PARSER
PARSER -> MODEL

MODULE_BUILDER -up-> MODEL
MODULE_BUILDER_CFG <- MODULE_BUILDER
MODULE_BUILDER_CONFIGURATOR -> MODULE_BUILDER_CFG
MODULE_BUILDER_CFG o-down- CLASS_BUILDER_CFG
MODULE_BUILDER_CONFIGURATOR -down-> CLASS_BUILDER_CFG
MODULE_BUILDER -down-> CLASS_BUILDER
CLASS_BUILDER_CFG <- CLASS_BUILDER
CLASS_BUILDER_CFG o-down- CLASS_BUILDER_STRATEGY
CLASS_BUILDER_STRATEGY -> CLASS_BUILDER_HELPER
'CLASS_BUILDER -down-> CLASS_BUILDER_STRATEGY
CLASS_BUILDER -down- CLASS_BUILDER_HELPER
CLASS_BUILDER -down-> CLASS_BUILDER_STRATEGY
CLASS_BUILDER -> CLASS_INDEX
CLASS_BUILDER -> CLASS_MODEL
MODULE_BUILDER -down-> CLASS_INDEX
CLASS_MODEL <- GENERATION_TASK
CLASS_INDEX o-down- CLASS_MODEL
MODULE_BUILDER -> GENERATION_TASK

GENERATOR_CONFIGURATOR -left-> MODEL
GENERATOR_CONFIGURATOR -down-> MODULE_BUILDER
GENERATOR_CFG o-left- MODULE_BUILDER
GENERATOR_CONFIGURATOR -down-> GENERATOR_CFG
GENERATOR -up-> GENERATOR_CFG
GENERATOR -down-> FILE_INDEX
GENERATOR -left-> MODULE_BUILDER
GENERATOR -down-> GENERATION_TASK

@enduml