@startuml
actor Programmer
participant Parser as "Swagger\nParser"
participant MainConfigurator as "Code\nGeneration\nConfigurator"
participant CodeGenerator as "Code\nGenerator"
participant ModuleBuilder as "Module\nBuilder"

== Konfiguracja generatora ==

Programmer -> Parser : parse
return restModel

Programmer -> MainConfigurator : << create >>
Programmer -> MainConfigurator : setIndexFile
note left #FFFFFF: ustaw plik z indexem\n wygenerowanych plików
Programmer -> MainConfigurator : setBaseDir
note left #FFFFFF: ustaw katalog z projektem\n dla generowanych plików
Programmer -> MainConfigurator : setMainSetter
note left #FFFFFF: ustaw konfigurację dla kodów\n dotyczącą wszystkich modułów
Programmer -> MainConfigurator : commonsModule
note left #FFFFFF: dodaj moduł 'commons'
Programmer -> MainConfigurator : springRestInAdapter(restModel)
note left #FFFFFF: dodaj moduł adaptera REST\nimplementujący API opisane w swagger
Programmer -> MainConfigurator : getCfg
return cfg


== Generowanie ==

Programmer -> CodeGenerator : run(cfg)
    loop each module
        CodeGenerator -> ModuleBuilder : make
        return fileGenerationTasks
        loop each fileGenerationTask
            CodeGenerator -> CodeGenerator : generateFile
            note right #FFFFFF
            istniejący plik nie będzie nadpisany
            jeżeli nie ma adnotacji @Generated
            end note
            CodeGenerator -> CodeGenerator : updateIndexFile
        end
    end
CodeGenerator --> Programmer

@enduml